<?xml version="1.0" encoding="UTF-8" standalone="no"?>
<!-- Created with Inkscape (http://www.inkscape.org/) -->

<svg
   width="800"
   height="950"
   viewBox="0 0 800 950"
   version="1.1"
   id="svg5"
   inkscape:version="1.2.1 (9c6d41e410, 2022-07-14)"
   sodipodi:docname="struktur.svg"
   xmlns:inkscape="http://www.inkscape.org/namespaces/inkscape"
   xmlns:sodipodi="http://sodipodi.sourceforge.net/DTD/sodipodi-0.dtd"
   xmlns="http://www.w3.org/2000/svg"
   xmlns:svg="http://www.w3.org/2000/svg">
  <sodipodi:namedview
     id="namedview7"
     pagecolor="#ffffff"
     bordercolor="#666666"
     borderopacity="1.0"
     inkscape:showpageshadow="2"
     inkscape:pageopacity="0.0"
     inkscape:pagecheckerboard="0"
     inkscape:deskcolor="#d1d1d1"
     inkscape:document-units="px"
     showgrid="true"
     inkscape:zoom="0.4204826"
     inkscape:cx="350.7874"
     inkscape:cy="431.64687"
     inkscape:window-width="1912"
     inkscape:window-height="1042"
     inkscape:window-x="0"
     inkscape:window-y="0"
     inkscape:window-maximized="0"
     inkscape:current-layer="layer3">
    <inkscape:grid
       type="xygrid"
       id="grid686"
       originx="0"
       originy="0"
       units="px"
       spacingx="1"
       spacingy="1" />
  </sodipodi:namedview>
  <defs
     id="defs2">
    <marker
       style="overflow:visible"
       id="marker4207"
       refX="0"
       refY="0"
       orient="auto-start-reverse"
       inkscape:stockid="Arrow1L"
       markerWidth="8.75"
       markerHeight="5"
       viewBox="0 0 8.75 5"
       inkscape:isstock="true"
       inkscape:collect="always"
       preserveAspectRatio="xMidYMid">
      <path
         style="fill:#000;fill-rule:evenodd;stroke:none"
         d="M 0,0 5,-5 -12.5,0 5,5 Z"
         id="path4205"
         transform="scale(-0.5)" />
    </marker>
    <marker
       style="overflow:visible"
       id="Arrow1L"
       refX="0"
       refY="0"
       orient="auto-start-reverse"
       inkscape:stockid="Arrow1L"
       markerWidth="8.75"
       markerHeight="5"
       viewBox="0 0 8.75 5"
       inkscape:isstock="true"
       inkscape:collect="always"
       preserveAspectRatio="xMidYMid">
      <path
         style="fill:#000;fill-rule:evenodd;stroke:none"
         d="M 0,0 5,-5 -12.5,0 5,5 Z"
         id="arrow1L"
         transform="scale(-0.5)" />
    </marker>
    <marker
       style="overflow:visible"
       id="Arrow1L-5"
       refX="0"
       refY="0"
       orient="auto-start-reverse"
       inkscape:stockid="Arrow1L"
       markerWidth="8.75"
       markerHeight="5"
       viewBox="0 0 8.75 5"
       inkscape:isstock="true"
       inkscape:collect="always"
       preserveAspectRatio="xMidYMid">
      <path
         style="fill:#000;fill-rule:evenodd;stroke:none"
         d="M 0,0 5,-5 -12.5,0 5,5 Z"
         id="arrow1L-5"
         transform="scale(-0.5)" />
    </marker>
    <marker
       style="overflow:visible"
       id="marker4207-9"
       refX="0"
       refY="0"
       orient="auto-start-reverse"
       inkscape:stockid="Arrow1L"
       markerWidth="8.75"
       markerHeight="5"
       viewBox="0 0 8.75 5"
       inkscape:isstock="true"
       inkscape:collect="always"
       preserveAspectRatio="xMidYMid">
      <path
         style="fill:#000;fill-rule:evenodd;stroke:none"
         d="M 0,0 5,-5 -12.5,0 5,5 Z"
         id="path4205-6"
         transform="scale(-0.5)" />
    </marker>
    <marker
       style="overflow:visible"
       id="Arrow1L-4"
       refX="0"
       refY="0"
       orient="auto-start-reverse"
       inkscape:stockid="Arrow1L"
       markerWidth="8.75"
       markerHeight="5"
       viewBox="0 0 8.75 5"
       inkscape:isstock="true"
       inkscape:collect="always"
       preserveAspectRatio="xMidYMid">
      <path
         style="fill:#000;fill-rule:evenodd;stroke:none"
         d="M 0,0 5,-5 -12.5,0 5,5 Z"
         id="arrow1L-1"
         transform="scale(-0.5)" />
    </marker>
    <marker
       style="overflow:visible"
       id="marker4207-6"
       refX="0"
       refY="0"
       orient="auto-start-reverse"
       inkscape:stockid="Arrow1L"
       markerWidth="8.75"
       markerHeight="5"
       viewBox="0 0 8.75 5"
       inkscape:isstock="true"
       inkscape:collect="always"
       preserveAspectRatio="xMidYMid">
      <path
         style="fill:#000;fill-rule:evenodd;stroke:none"
         d="M 0,0 5,-5 -12.5,0 5,5 Z"
         id="path4205-5"
         transform="scale(-0.5)" />
    </marker>
  </defs>
  <g
     inkscape:groupmode="layer"
     id="layer3"
     inkscape:label="Hintergrund">
    <rect
       style="font-variation-settings:normal;opacity:1;fill:#ffffff;fill-opacity:1;stroke:none;stroke-width:0.656;stroke-linecap:butt;stroke-linejoin:miter;stroke-miterlimit:4;stroke-dasharray:none;stroke-dashoffset:0;stroke-opacity:1;stop-color:#000000;stop-opacity:1"
       id="rect5050"
       width="800"
       height="950"
       x="0"
       y="0" />
  </g>
  <g
     inkscape:groupmode="layer"
     id="layer2"
     inkscape:label="geom. Formen">
    <rect
       style="fill:#00a7ff;fill-opacity:1;stroke:#000000;stroke-width:1;stroke-opacity:1;stop-color:#000000"
       id="rect1042"
       width="100.00001"
       height="60"
       x="320"
       y="420" />
    <rect
       style="fill:#290000;fill-opacity:1;stroke:#000000;stroke-width:1;stroke-opacity:1;stop-color:#000000"
       id="rect1042-3"
       width="100.00001"
       height="60"
       x="30"
       y="220" />
    <rect
       style="fill:#00a7ff;fill-opacity:1;stroke:#000000;stroke-width:1;stroke-opacity:1;stop-color:#000000"
       id="rect1042-5"
       width="100.00001"
       height="60"
       x="350"
       y="620" />
    <rect
       style="fill:#00a7ff;fill-opacity:1;stroke:#000000;stroke-width:1;stroke-opacity:1;stop-color:#000000"
       id="rect1042-2"
       width="100.00001"
       height="60"
       x="200"
       y="620" />
    <rect
       style="fill:#00a7ff;fill-opacity:1;stroke:#000000;stroke-width:1;stroke-opacity:1;stop-color:#000000"
       id="rect1042-5-3"
       width="100.00001"
       height="60"
       x="49.999996"
       y="620" />
    <rect
       style="font-variation-settings:normal;opacity:1;fill:#c9ff00;fill-opacity:1;stroke:#000000;stroke-width:1;stroke-linecap:butt;stroke-linejoin:miter;stroke-miterlimit:4;stroke-dasharray:none;stroke-dashoffset:0;stroke-opacity:1;stop-color:#000000;stop-opacity:1"
       id="rect1042-5-8"
       width="100.00001"
       height="60"
       x="460"
       y="820" />
    <rect
       style="font-variation-settings:normal;opacity:1;fill:#ffa9ff;fill-opacity:1;stroke:#000000;stroke-width:1;stroke-linecap:butt;stroke-linejoin:miter;stroke-miterlimit:4;stroke-dasharray:none;stroke-dashoffset:0;stroke-opacity:1;stop-color:#000000;stop-opacity:1"
       id="rect1042-5-80"
       width="100.00001"
       height="60"
       x="590"
       y="820" />
    <rect
       style="fill:#00a7ff;fill-opacity:1;stroke:#000000;stroke-width:1;stroke-opacity:1;stop-color:#000000"
       id="rect1042-5-9"
       width="100.00001"
       height="60"
       x="30"
       y="820" />
    <rect
       style="fill:#00a7ff;fill-opacity:1;stroke:#000000;stroke-width:1;stroke-opacity:1;stop-color:#000000"
       id="rect1042-5-2"
       width="100.00001"
       height="60"
       x="160"
       y="820" />
    <rect
       style="fill:#00a7ff;fill-opacity:1;stroke:#000000;stroke-width:1;stroke-opacity:1;stop-color:#000000"
       id="rect1042-38"
       width="100.00001"
       height="60"
       x="320"
       y="220" />
    <rect
       style="fill:#c9ff00;fill-opacity:1;stroke:#000000;stroke-width:1;stroke-opacity:1;stop-color:#000000"
       id="rect1042-7-6"
       width="100.00001"
       height="60"
       x="495"
       y="220" />
    <rect
       style="fill:#ffa9ff;fill-opacity:1;stroke:#000000;stroke-width:1;stroke-opacity:1;stop-color:#000000"
       id="rect1042-8-7"
       width="100.00001"
       height="60"
       x="670"
       y="220" />
    <rect
       style="font-variation-settings:normal;opacity:1;fill:#00a7ff;fill-opacity:1;stroke:#000000;stroke-width:1;stroke-linecap:butt;stroke-linejoin:miter;stroke-miterlimit:4;stroke-dasharray:none;stroke-dashoffset:0;stroke-opacity:1;stop-color:#000000;stop-opacity:1"
       id="rect1042-5-8-9"
       width="100.00001"
       height="60"
       x="330"
       y="820" />
    <text
       xml:space="preserve"
       style="font-size:15.1181px;line-height:0;font-family:VerdanaEuro;-inkscape-font-specification:VerdanaEuro;text-align:center;text-decoration:none;text-decoration-line:none;text-decoration-color:#000000;text-anchor:middle;fill:#000000;fill-opacity:1;stroke:#000000;stroke-width:0.755906;stroke-opacity:1;stop-color:#000000"
       x="369.91879"
       y="465.49582"
       id="text2936"><tspan
         sodipodi:role="line"
         id="tspan2934"
         x="369.91879"
         y="465.49582"
         style="font-size:15.1181px;line-height:0px;fill:#000000;fill-opacity:1;stroke:#000000;stroke-opacity:1">eines Ortes</tspan></text>
    <rect
       style="fill:#00a7ff;fill-opacity:1;stroke:#000000;stroke-width:1;stroke-opacity:1;stop-color:#000000"
       id="rect1042-7"
       width="100.00001"
       height="60"
       x="175"
       y="420" />
    <rect
       style="fill:#00a7ff;fill-opacity:1;stroke:#000000;stroke-width:1;stroke-opacity:1;stop-color:#000000"
       id="rect1042-59"
       width="100.00001"
       height="60"
       x="30"
       y="420" />
    <text
       xml:space="preserve"
       style="font-size:15.1181px;line-height:0;font-family:VerdanaEuro;-inkscape-font-specification:VerdanaEuro;text-align:center;text-decoration:none;text-decoration-line:none;text-decoration-color:#000000;text-anchor:middle;fill:#000000;fill-opacity:1;stroke:#000000;stroke-width:0.755906;stroke-opacity:1;stop-color:#000000"
       x="224.91879"
       y="465.49582"
       id="text2936-4"><tspan
         sodipodi:role="line"
         id="tspan2934-5"
         x="224.91879"
         y="465.49582"
         style="font-size:15.1181px;line-height:0px;fill:#000000;fill-opacity:1;stroke:#000000;stroke-opacity:1">eines Ortes</tspan></text>
    <text
       xml:space="preserve"
       style="font-size:15.1181px;line-height:0;font-family:VerdanaEuro;-inkscape-font-specification:VerdanaEuro;text-align:center;text-decoration:none;text-decoration-line:none;text-decoration-color:#000000;text-anchor:middle;fill:#000000;fill-opacity:1;stroke:#000000;stroke-width:0.755906;stroke-opacity:1;stop-color:#000000"
       x="79.977852"
       y="465.62869"
       id="text2936-3"><tspan
         sodipodi:role="line"
         id="tspan2934-58"
         x="79.977852"
         y="465.62869"
         style="font-size:15.1181px;line-height:0px;fill:#000000;fill-opacity:1;stroke:#000000;stroke-opacity:1">einer Höhle</tspan></text>
    <path
       style="font-variation-settings:normal;opacity:1;fill:none;fill-opacity:1;stroke:#000000;stroke-width:2.5;stroke-linecap:butt;stroke-linejoin:miter;stroke-miterlimit:4;stroke-dasharray:none;stroke-dashoffset:0;stroke-opacity:1;stop-color:#000000;stop-opacity:1"
       d="M 315,290 105,410"
       id="path3580"
       sodipodi:nodetypes="cc" />
    <path
       style="font-variation-settings:normal;fill:none;fill-opacity:1;stroke:#000000;stroke-width:2.5;stroke-linecap:butt;stroke-linejoin:miter;stroke-miterlimit:4;stroke-dasharray:none;stroke-dashoffset:0;stroke-opacity:1;stop-color:#000000"
       d="M 370,290 V 410"
       id="path3580-5"
       sodipodi:nodetypes="cc" />
    <path
       style="font-variation-settings:normal;fill:none;fill-opacity:1;stroke:#000000;stroke-width:2.5;stroke-linecap:butt;stroke-linejoin:miter;stroke-miterlimit:4;stroke-dasharray:none;stroke-dashoffset:0;stroke-opacity:1;stop-color:#000000"
       d="M 345,290 230,410"
       id="path3580-8"
       sodipodi:nodetypes="cc" />
    <path
       style="font-variation-settings:normal;fill:none;fill-opacity:1;stroke:#000000;stroke-width:2.5;stroke-linecap:butt;stroke-linejoin:miter;stroke-miterlimit:4;stroke-dasharray:none;stroke-dashoffset:0;stroke-opacity:1;stop-color:#000000"
       d="M 545,290 530,810"
       id="path3580-5-1"
       sodipodi:nodetypes="cc" />
    <path
       style="font-variation-settings:normal;fill:none;fill-opacity:1;stroke:#000000;stroke-width:2.5;stroke-linecap:butt;stroke-linejoin:miter;stroke-miterlimit:4;stroke-dasharray:none;stroke-dashoffset:0;stroke-opacity:1;stop-color:#000000"
       d="M 720,290 655,810"
       id="path3580-5-9"
       sodipodi:nodetypes="cc" />
    <path
       style="font-variation-settings:normal;fill:none;fill-opacity:1;stroke:#000000;stroke-width:2.5;stroke-linecap:butt;stroke-linejoin:miter;stroke-miterlimit:4;stroke-dasharray:none;stroke-dashoffset:0;stroke-opacity:1;stop-color:#000000"
       d="m 395,490 5,120"
       id="path3580-5-8"
       sodipodi:nodetypes="cc" />
    <path
       style="font-variation-settings:normal;fill:none;fill-opacity:1;stroke:#000000;stroke-width:2.5;stroke-linecap:butt;stroke-linejoin:miter;stroke-miterlimit:4;stroke-dasharray:none;stroke-dashoffset:0;stroke-opacity:1;stop-color:#000000"
       d="M 365,490 250,610"
       id="path3580-5-2"
       sodipodi:nodetypes="cc" />
    <path
       style="font-variation-settings:normal;fill:none;fill-opacity:1;stroke:#000000;stroke-width:2.5;stroke-linecap:butt;stroke-linejoin:miter;stroke-miterlimit:4;stroke-dasharray:none;stroke-dashoffset:0;stroke-opacity:1;stop-color:#000000"
       d="M 335,490 100,610"
       id="path3580-5-7"
       sodipodi:nodetypes="cc" />
    <path
       style="font-variation-settings:normal;fill:none;fill-opacity:1;stroke:#000000;stroke-width:2.5;stroke-linecap:butt;stroke-linejoin:miter;stroke-miterlimit:4;stroke-dasharray:none;stroke-dashoffset:0;stroke-opacity:1;stop-color:#000000"
       d="M 400,690 380,810"
       id="path3580-5-81"
       sodipodi:nodetypes="cc" />
    <path
       style="font-variation-settings:normal;fill:none;fill-opacity:1;stroke:#000000;stroke-width:2.5;stroke-linecap:butt;stroke-linejoin:miter;stroke-miterlimit:4;stroke-dasharray:none;stroke-dashoffset:0;stroke-opacity:1;stop-color:#000000"
       d="M 375,690 210,810"
       id="path3580-5-20"
       sodipodi:nodetypes="cc" />
    <path
       style="font-variation-settings:normal;fill:none;fill-opacity:1;stroke:#000000;stroke-width:2.5;stroke-linecap:butt;stroke-linejoin:miter;stroke-miterlimit:4;stroke-dasharray:none;stroke-dashoffset:0;stroke-opacity:1;stop-color:#000000"
       d="M 350,690 80,810"
       id="path3580-5-27"
       sodipodi:nodetypes="cc" />
    <path
       style="font-variation-settings:normal;fill:none;fill-opacity:1;stroke:#000000;stroke-width:2.5;stroke-linecap:butt;stroke-linejoin:miter;stroke-miterlimit:4;stroke-dasharray:none;stroke-dashoffset:0;stroke-opacity:1;stop-color:#000000"
       d="M 450,690 625,810"
       id="path3580-5-81-2"
       sodipodi:nodetypes="cc" />
    <path
       style="font-variation-settings:normal;fill:none;fill-opacity:1;stroke:#000000;stroke-width:2.5;stroke-linecap:butt;stroke-linejoin:miter;stroke-miterlimit:4;stroke-dasharray:none;stroke-dashoffset:0;stroke-opacity:1;stop-color:#000000"
       d="m 425,690 70,120"
       id="path3580-5-81-20"
       sodipodi:nodetypes="cc" />
    <path
       style="font-variation-settings:normal;fill:none;fill-opacity:1;stroke:#000000;stroke-width:2.5;stroke-linecap:butt;stroke-linejoin:miter;stroke-miterlimit:4;stroke-dasharray:none;stroke-dashoffset:0;stroke-opacity:1;stop-color:#000000"
       d="M 80,290 V 410"
       id="path3580-5-4"
       sodipodi:nodetypes="cc" />
    <path
       style="font-variation-settings:normal;fill:none;fill-opacity:1;stroke:#000000;stroke-width:2;stroke-linecap:butt;stroke-linejoin:miter;stroke-miterlimit:4;stroke-dasharray:none;stroke-dashoffset:0;stroke-opacity:1;marker-start:url(#Arrow1L);marker-end:url(#marker4207);stop-color:#000000"
       d="m 440,250 h 35"
       id="path3580-5-4-8"
       sodipodi:nodetypes="cc" />
    <path
       style="font-variation-settings:normal;fill:none;fill-opacity:1;stroke:#000000;stroke-width:2;stroke-linecap:butt;stroke-linejoin:miter;stroke-miterlimit:4;stroke-dasharray:none;stroke-dashoffset:0;stroke-opacity:1;marker-start:url(#Arrow1L-5);marker-end:url(#marker4207-9);stop-color:#000000"
       d="m 615,250 h 35"
       id="path3580-5-4-8-6"
       sodipodi:nodetypes="cc" />
    <path
       style="font-variation-settings:normal;fill:none;fill-opacity:1;stroke:#000000;stroke-width:2;stroke-linecap:butt;stroke-linejoin:miter;stroke-miterlimit:4;stroke-dasharray:none;stroke-dashoffset:0;stroke-opacity:1;marker-start:url(#Arrow1L-4);marker-end:url(#marker4207-6);stop-color:#000000"
       d="m 435,210 c 50,-50 170,-50 220,0"
       id="path3580-5-4-8-7"
       sodipodi:nodetypes="cc" />
    <text
       xml:space="preserve"
       style="font-size:15.1181px;line-height:0;font-family:VerdanaEuro;-inkscape-font-specification:VerdanaEuro;text-align:center;text-decoration:none;text-decoration-line:none;text-decoration-color:#000000;text-anchor:middle;fill:#000000;fill-opacity:1;stroke:none;stroke-width:0.656;stroke-opacity:1;stop-color:#000000"
       x="544.89667"
       y="205.62869"
       id="text2936-3-4"><tspan
         sodipodi:role="line"
         id="tspan2934-58-3"
         x="544.89667"
         y="205.62869"
         style="font-size:15.1181px;line-height:0px;fill:#000000;fill-opacity:1;stroke:none;stroke-width:0.656;stroke-opacity:1">Kommunikation</tspan></text>
    <text
       xml:space="preserve"
       style="font-size:15.1181px;line-height:0;font-family:VerdanaEuro;-inkscape-font-specification:VerdanaEuro;text-align:center;text-decoration:none;text-decoration-line:none;text-decoration-color:#000000;text-anchor:middle;fill:#000000;fill-opacity:1;stroke:none;stroke-width:0.656;stroke-opacity:1;stop-color:#000000"
       x="381.26968"
       y="900.39984"
       id="text2936-3-4-3"><tspan
         sodipodi:role="line"
         id="tspan2934-58-3-8"
         x="381.26968"
         y="900.39984"
         style="font-size:15.1181px;line-height:0px;fill:#000000;fill-opacity:1;stroke:none;stroke-width:0.656;stroke-opacity:1">User 1</tspan></text>
    <text
       xml:space="preserve"
       style="font-size:15.1181px;line-height:0;font-family:VerdanaEuro;-inkscape-font-specification:VerdanaEuro;text-align:center;text-decoration:none;text-decoration-line:none;text-decoration-color:#000000;text-anchor:middle;fill:#000000;fill-opacity:1;stroke:none;stroke-width:0.656;stroke-opacity:1;stop-color:#000000"
       x="509.83392"
       y="900.49579"
       id="text2936-3-4-3-6"><tspan
         sodipodi:role="line"
         id="tspan2934-58-3-8-3"
         x="509.83392"
         y="900.49579"
         style="font-size:15.1181px;line-height:0px;fill:#000000;fill-opacity:1;stroke:none;stroke-width:0.656;stroke-opacity:1">User 2</tspan></text>
    <text
       xml:space="preserve"
       style="font-size:15.1181px;line-height:0;font-family:VerdanaEuro;-inkscape-font-specification:VerdanaEuro;text-align:center;text-decoration:none;text-decoration-line:none;text-decoration-color:#000000;text-anchor:middle;fill:#000000;fill-opacity:1;stroke:none;stroke-width:0.656;stroke-opacity:1;stop-color:#000000"
       x="639.91144"
       y="900.49579"
       id="text2936-3-4-3-0"><tspan
         sodipodi:role="line"
         id="tspan2934-58-3-8-7"
         x="639.91144"
         y="900.49579"
         style="font-size:15.1181px;line-height:0px;fill:#000000;fill-opacity:1;stroke:none;stroke-width:0.656;stroke-opacity:1">User 3</tspan></text>
  </g>
  <g
     inkscape:label="Text"
     inkscape:groupmode="layer"
     id="layer1">
    <text
       xml:space="preserve"
       style="font-size:18.8976px;line-height:0%;font-family:VerdanaEuro;-inkscape-font-specification:VerdanaEuro;text-align:center;text-decoration:none;text-decoration-line:none;text-decoration-color:#000000;text-anchor:middle;fill:#000000;fill-opacity:1;stroke:#000000;stroke-width:0.755906;stroke-opacity:1;stop-color:#000000"
       x="370"
       y="446.85129"
       id="text1441"><tspan
         sodipodi:role="line"
         id="tspan1439"
         x="370"
         y="446.85129">BESUCH</tspan></text>
    <text
       xml:space="preserve"
       style="font-size:18.8976px;line-height:0%;font-family:VerdanaEuro;-inkscape-font-specification:VerdanaEuro;text-align:center;text-decoration:none;text-decoration-line:none;text-decoration-color:#000000;text-anchor:middle;fill:#ffffff;fill-opacity:1;stroke:#ffffff;stroke-width:0.755906;stroke-opacity:1;stop-color:#000000"
       x="79.603241"
       y="258.49377"
       id="text1441-6"><tspan
         sodipodi:role="line"
         id="tspan1439-3"
         x="79.603241"
         y="258.49377">HÖHLE</tspan></text>
    <text
       xml:space="preserve"
       style="font-size:18.8976px;line-height:0%;font-family:VerdanaEuro;-inkscape-font-specification:VerdanaEuro;text-align:end;text-decoration:none;text-decoration-line:none;text-decoration-color:#000000;text-anchor:end;fill:#000000;fill-opacity:1;stroke:#000000;stroke-width:0.755906;stroke-opacity:1;stop-color:#000000"
       x="406.83557"
       y="256.85132"
       id="text1441-5"><tspan
         sodipodi:role="line"
         id="tspan1439-0"
         x="406.83557"
         y="256.85132">USER 1</tspan></text>
    <text
       xml:space="preserve"
       style="font-size:18.8976px;line-height:0%;font-family:VerdanaEuro;-inkscape-font-specification:VerdanaEuro;text-align:end;text-decoration:none;text-decoration-line:none;text-decoration-color:#000000;text-anchor:end;fill:#000000;fill-opacity:1;stroke:#000000;stroke-width:0.755906;stroke-opacity:1;stop-color:#000000"
       x="580.04083"
       y="256.86975"
       id="text1441-5-0"><tspan
         sodipodi:role="line"
         id="tspan1439-0-6"
         x="580.04083"
         y="256.86975">USER 2</tspan></text>
    <text
       xml:space="preserve"
       style="font-size:18.8976px;line-height:0%;font-family:VerdanaEuro;-inkscape-font-specification:VerdanaEuro;text-align:end;text-decoration:none;text-decoration-line:none;text-decoration-color:#000000;text-anchor:end;fill:#000000;fill-opacity:1;stroke:#000000;stroke-width:0.755906;stroke-opacity:1;stop-color:#000000"
       x="755.1377"
       y="256.86975"
       id="text1441-5-2"><tspan
         sodipodi:role="line"
         id="tspan1439-0-8"
         x="755.1377"
         y="256.86975">USER 3</tspan></text>
    <text
       xml:space="preserve"
       style="font-size:18.8976px;line-height:0%;font-family:VerdanaEuro;-inkscape-font-specification:VerdanaEuro;text-align:end;text-decoration:none;text-decoration-line:none;text-decoration-color:#000000;text-anchor:end;fill:#000000;fill-opacity:1;stroke:#000000;stroke-width:0.755906;stroke-opacity:1;stop-color:#000000"
       x="137.50916"
       y="656.74982"
       id="text1441-5-7"><tspan
         sodipodi:role="line"
         id="tspan1439-0-81"
         x="137.50916"
         y="656.74982">FUND 1</tspan></text>
    <text
       xml:space="preserve"
       style="font-size:18.8976px;line-height:0%;font-family:VerdanaEuro;-inkscape-font-specification:VerdanaEuro;text-align:end;text-decoration:none;text-decoration-line:none;text-decoration-color:#000000;text-anchor:end;fill:#000000;fill-opacity:1;stroke:#000000;stroke-width:0.755906;stroke-opacity:1;stop-color:#000000"
       x="285.71445"
       y="656.86975"
       id="text1441-5-7-2"><tspan
         sodipodi:role="line"
         id="tspan1439-0-81-6"
         x="285.71445"
         y="656.86975">FUND 2</tspan></text>
    <text
       xml:space="preserve"
       style="font-size:18.8976px;line-height:0%;font-family:VerdanaEuro;-inkscape-font-specification:VerdanaEuro;text-align:end;text-decoration:none;text-decoration-line:none;text-decoration-color:#000000;text-anchor:end;fill:#000000;fill-opacity:1;stroke:#000000;stroke-width:0.755906;stroke-opacity:1;stop-color:#000000"
       x="435.81131"
       y="656.86975"
       id="text1441-5-7-4"><tspan
         sodipodi:role="line"
         id="tspan1439-0-81-3"
         x="435.81131"
         y="656.86975">FUND 3</tspan></text>
    <text
       xml:space="preserve"
       style="font-size:18.8976px;line-height:0%;font-family:VerdanaEuro;-inkscape-font-specification:VerdanaEuro;text-align:end;text-decoration:none;text-decoration-line:none;text-decoration-color:#000000;text-anchor:end;fill:#000000;fill-opacity:1;stroke:#000000;stroke-width:0.755906;stroke-opacity:1;stop-color:#000000"
       x="119.77447"
       y="856.89282"
       id="text1441-5-7-3"><tspan
         sodipodi:role="line"
         id="tspan1439-0-81-2"
         x="119.77447"
         y="856.89282">DATEI 1</tspan></text>
    <text
       xml:space="preserve"
       style="font-size:18.8976px;line-height:0%;font-family:VerdanaEuro;-inkscape-font-specification:VerdanaEuro;text-align:end;text-decoration:none;text-decoration-line:none;text-decoration-color:#000000;text-anchor:end;fill:#000000;fill-opacity:1;stroke:#000000;stroke-width:0.755906;stroke-opacity:1;stop-color:#000000"
       x="247.97975"
       y="857.01276"
       id="text1441-5-7-5"><tspan
         sodipodi:role="line"
         id="tspan1439-0-81-0"
         x="247.97975"
         y="857.01276">DATEI 2</tspan></text>
    <text
       xml:space="preserve"
       style="font-style:normal;font-variant:normal;font-weight:normal;font-stretch:normal;font-size:18.8976px;line-height:1;font-family:VerdanaEuro;-inkscape-font-specification:VerdanaEuro;font-variant-ligatures:normal;font-variant-position:normal;font-variant-caps:normal;font-variant-numeric:normal;font-variant-alternates:normal;font-variant-east-asian:normal;font-feature-settings:normal;font-variation-settings:normal;text-indent:0;text-align:start;text-decoration:none;text-decoration-line:none;text-decoration-style:solid;text-decoration-color:#000000;letter-spacing:normal;word-spacing:normal;text-transform:none;writing-mode:lr-tb;direction:ltr;text-orientation:mixed;dominant-baseline:auto;baseline-shift:baseline;text-anchor:middle;white-space:normal;opacity:1;vector-effect:none;fill:#000000;fill-opacity:1;stroke:#000000;stroke-width:0.755906;stroke-linecap:butt;stroke-linejoin:miter;stroke-miterlimit:4;stroke-dasharray:none;stroke-dashoffset:0;stroke-opacity:1;-inkscape-stroke:none;stop-color:#000000;stop-opacity:1"
       x="379.78314"
       y="847.40253"
       id="text1441-5-7-0"><tspan
         sodipodi:role="line"
         id="tspan1439-0-81-01"
         x="379.78314"
         y="847.40253">BESTIM-</tspan><tspan
         sodipodi:role="line"
         x="379.78314"
         y="866.30011"
         id="tspan2880">MUNG 1</tspan></text>
    <text
       xml:space="preserve"
       style="font-size:18.8976px;line-height:1;font-family:VerdanaEuro;-inkscape-font-specification:VerdanaEuro;text-align:start;text-decoration:none;text-decoration-line:none;text-decoration-color:#000000;text-anchor:start;fill:#000000;fill-opacity:1;stroke:#000000;stroke-width:0.755906;stroke-opacity:1;stop-color:#000000"
       x="468.81836"
       y="847.40253"
       id="text1441-5-7-36"><tspan
         sodipodi:role="line"
         id="tspan1439-0-81-8"
         x="468.81836"
         y="847.40253">BESTIM-</tspan><tspan
         sodipodi:role="line"
         x="468.81836"
         y="866.30011"
         id="tspan2878">MUNG 2</tspan></text>
    <text
       xml:space="preserve"
       style="font-size:18.8976px;line-height:1;font-family:VerdanaEuro;-inkscape-font-specification:VerdanaEuro;text-align:center;text-decoration:none;text-decoration-line:none;text-decoration-color:#000000;text-anchor:middle;fill:#000000;fill-opacity:1;stroke:#000000;stroke-width:0.755906;stroke-opacity:1;stop-color:#000000"
       x="639.78314"
       y="847.40253"
       id="text1441-5-7-42"><tspan
         sodipodi:role="line"
         id="tspan1439-0-81-9"
         x="639.78314"
         y="847.40253">BESTIM-</tspan><tspan
         sodipodi:role="line"
         x="639.78314"
         y="866.30011"
         id="tspan2876">MUNG 3</tspan></text>
    <text
       xml:space="preserve"
       style="font-size:18.8976px;line-height:0%;font-family:VerdanaEuro;-inkscape-font-specification:VerdanaEuro;text-align:center;text-decoration:none;text-decoration-line:none;text-decoration-color:#000000;text-anchor:middle;fill:#000000;fill-opacity:1;stroke:#000000;stroke-width:0.755906;stroke-opacity:1;stop-color:#000000"
       x="225"
       y="446.85129"
       id="text1441-7"><tspan
         sodipodi:role="line"
         id="tspan1439-4"
         x="225"
         y="446.85129">BESUCH</tspan></text>
    <text
       xml:space="preserve"
       style="font-size:18.8976px;line-height:0%;font-family:VerdanaEuro;-inkscape-font-specification:VerdanaEuro;text-align:center;text-decoration:none;text-decoration-line:none;text-decoration-color:#000000;text-anchor:middle;fill:#000000;fill-opacity:1;stroke:#000000;stroke-width:0.755906;stroke-opacity:1;stop-color:#000000"
       x="80"
       y="446.85129"
       id="text1441-2"><tspan
         sodipodi:role="line"
         id="tspan1439-5"
         x="80"
         y="446.85129">BESUCH</tspan></text>
    <text
       xml:space="preserve"
       style="font-size:28px;line-height:0%;font-family:VerdanaEuro;-inkscape-font-specification:VerdanaEuro;text-align:end;text-decoration:none;text-decoration-line:none;text-decoration-color:#000000;text-anchor:end;fill:#000000;fill-opacity:1;stroke:#000000;stroke-width:0.755906;stroke-opacity:1;stop-color:#000000"
       x="611.32227"
       y="65.151367"
       id="text1441-5-1"><tspan
         sodipodi:role="line"
         id="tspan1439-0-5"
         x="611.32227"
         y="65.151367">STRUKTUR DER FUNDDATENBANK</tspan></text>
  </g>
</svg>
