<?xml version="1.0" encoding="UTF-8" standalone="no"?>
<svg
   version="1.1"
   width="32"
   height="32"
   xmlns="http://www.w3.org/2000/svg">
  <path
     d="m 4.3609697,25.13366 2.527952,2.559672 9.1872653,-9.147398 9.16078,9.216162 2.663609,-2.687217 -9.238321,-9.205434 4.788773,-4.700951 4.730391,4.872981 0.67465,-7.0956582 -1.606377,-1.6335426 0.419369,-0.435721 -2.588015,-2.580098 -0.500331,0.527682 -3.072644,-3.080765 -3.987623,3.966639 3.085295,3.1000726 -4.491601,4.5178872 -4.253796,-4.1390942 3.442768,-3.4290896 -3.910465,-3.882531 -3.4071323,3.395329 -0.364521,-0.40229 -2.637023,2.63596 0.362989,0.3756422 -3.34432,3.3137386 3.941075,3.923738 3.375368,-3.382625 4.1512793,4.23283 z"
     style="fill:#000000;fill-opacity:1;fill-rule:evenodd;stroke:#000000;stroke-width:0;stroke-linecap:butt;stroke-linejoin:miter;stroke-miterlimit:4;stroke-dasharray:none;stroke-opacity:1"
  />
</svg>
