<?xml version="1.0" encoding="UTF-8" standalone="no"?>
<svg
   version="1.1"
   width="32"
   height="32"
   xmlns="http://www.w3.org/2000/svg">
  <path
     d="M 26,18.277229 V 16 C 26,10 22.1875,6 16,6 9.8125009,6 6,10.060307 6,16 v 2.277229"
     style="fill:none;stroke:#ff0000;stroke-width:3;stroke-linecap:butt;stroke-linejoin:miter;stroke-miterlimit:4;stroke-dasharray:none;stroke-opacity:1" />
  <path
     d="m 18.5,16 a 2.5000003,2.4828426 0 1 1 -5,0 2.5000003,2.4828426 0 1 1 5,0 z"
     style="color:#000000;display:inline;overflow:visible;visibility:visible;fill:#ff0000;fill-opacity:1;stroke:#ff0000;stroke-width:1;stroke-opacity:1;marker:none;enable-background:accumulate" />
</svg>
