<?xml version="1.0" encoding="UTF-8" standalone="no"?>
<svg
   version="1.1"
   width="32"
   height="32"
   xmlns="http://www.w3.org/2000/svg">
  <path
     d="m 18.5,16 a 2.5000003,2.4828426 0 1 1 -5,0 2.5000003,2.4828426 0 1 1 5,0 z"
     style="color:#000000;display:inline;overflow:visible;visibility:visible;fill:#ff00ff;fill-opacity:1;stroke:#ff00ff;stroke-width:1;stroke-opacity:1;marker:none;enable-background:accumulate" />
  <path
     d="M 6,18.277229 V 6 h 20 v 12.277229"
     style="fill:none;stroke:#ff00ff;stroke-width:3;stroke-linecap:butt;stroke-linejoin:miter;stroke-miterlimit:4;stroke-dasharray:none;stroke-opacity:1" />
</svg>
